Laptop price prediction
…
# Model building

---

# Initial model

```r
laptop_fit <- linear_reg() %>%
  set_engine("lm") %>%
  fit(Price ~ . - Storage_space, data = train_data)
tidy(laptop_fit)
```

```
## # A tibble: 36 × 5
##    term           estimate std.error statistic     p.value
##    <chr>             <dbl>     <dbl>     <dbl>       <dbl>
##  1 (Intercept)      9.67      0.0873   111.    0          
##  2 CompanyApple     0.299     0.0921     3.25  0.00121    
##  3 CompanyAsus      0.102     0.0423     2.42  0.0158     
##  4 CompanyDell      0.172     0.0387     4.45  0.00000982 
##  5 CompanyFujitsu  -0.0214    0.149     -0.143 0.886      
##  6 CompanyGoogle    0.490     0.187      2.62  0.00896    
##  7 CompanyHP        0.192     0.0375     5.12  0.000000375
##  8 CompanyHuawei    0.144     0.255      0.566 0.572      
##  9 CompanyLenovo    0.105     0.0369     2.85  0.00446    
## 10 CompanyLG        0.479     0.184      2.60  0.00948    
## # ℹ 26 more rows
```
…
---

# Final model

```r
laptop_fit_final <- linear_reg() %>%
  set_engine("lm") %>%
  fit(Price ~ .-HDD -Storage_space -Ips, data = train_data)
tidy(laptop_fit_final)
```

```
## # A tibble: 34 × 5
##    term           estimate std.error statistic     p.value
##    <chr>             <dbl>     <dbl>     <dbl>       <dbl>
##  1 (Intercept)      9.67      0.0870   111.    0          
##  2 CompanyApple     0.307     0.0918     3.34  0.000869   
##  3 CompanyAsus      0.0929    0.0416     2.23  0.0258     
##  4 CompanyDell      0.165     0.0381     4.33  0.0000163  
##  5 CompanyFujitsu  -0.0279    0.149     -0.187 0.852      
##  6 CompanyGoogle    0.484     0.187      2.59  0.00978    
##  7 CompanyHP        0.189     0.0374     5.05  0.000000531
##  8 CompanyHuawei    0.152     0.254      0.598 0.550      
##  9 CompanyLenovo    0.106     0.0369     2.87  0.00427    
## 10 CompanyLG        0.485     0.184      2.64  0.00844    
## # ℹ 24 more rows
```
…
```
## Warning in predict.lm(object = object$fit, newdata = new_data, type =
## "response", : prediction from rank-deficient fit; consider predict(.,
## rankdeficient="NA")
```

```r
laptop_pred
```

```
## # A tibble: 237 × 2
##    .pred Price
##    <dbl> <dbl>
##  1  10.1  9.82
##  2  10.4 10.2 
##  3  10.9 10.6 
##  4  10.1 10.2 
##  5  11.1 10.9 
##  6  10.8 10.7 
##  7  10.8 10.8 
##  8  10.2 10.1 
##  9  10.6 10.2 
## 10  11.0 10.9 
## # ℹ 227 more rows
```
…
